…
opioids_tidy
```

```
## # A tibble: 1,234,622 x 6
##    County   Date       Name                           Category   Schedule Pills
##    <chr>    <date>     <chr>                          <chr>      <chr>    <dbl>
##  1 Anderson 2015-04-01 ACETAMINOPHEN WITH CODEINE PH… Opioid     III      37950
##  2 Anderson 2015-04-01 ACETAMINOPHEN/CAFFEINE/DIHYDR… Opioid     III        380
##  3 Anderson 2015-04-01 ALPRAZOLAM                     Benzodiaz… IV       52914
##  4 Anderson 2015-04-01 AMITRIPTYLINE HCL/CHLORDIAZEP… Benzodiaz… IV         180
##  5 Anderson 2015-04-01 AMPHETAMINE SULFATE            Amphetami… IV          60
##  6 Anderson 2015-04-01 ARMODAFINIL                    Stimulant  IV         824
##  7 Anderson 2015-04-01 ASPIRIN/CAFFEINE/DIHYDROCODEI… Opioid     III          0
##  8 Anderson 2015-04-01 BENZPHETAMINE HCL              Amphetami… III         30
##  9 Anderson 2015-04-01 BROMPHENIRAMINE MALEATE/PHENY… Opioid     V            0
## 10 Anderson 2015-04-01 BROMPHENIRAMINE MALEATE/PSEUD… Opioid     III          0
## # ... with 1,234,612 more rows
```
…
county_models <- opioids_by_county %>%    
  nest(-County) %>%
  mutate(models = map(data, ~ lm(Pills ~ Date, .))) %>%
  unnest(map(models, tidy)) %>%
  filter(term == "Date") %>%
  arrange(desc(estimate))

county_models    
```

```
## # A tibble: 256 x 6
##    County  term  estimate std.error statistic       p.value
##    <chr>   <chr>    <dbl>     <dbl>     <dbl>         <dbl>
##  1 Potter  Date      733.      92.9     7.89  0.00000000281
##  2 Gregg   Date      561.      76.4     7.34  0.0000000140 
##  3 Smith   Date      483.     101.      4.77  0.0000317    
##  4 Lubbock Date      436.      75.8     5.75  0.00000167   
##  5 Brazos  Date      322.      64.9     4.96  0.0000181    
##  6 Fannin  Date      277.      47.0     5.89  0.00000107   
##  7 Howard  Date      205.      28.6     7.16  0.0000000240 
##  8 Hopkins Date      202.      33.1     6.09  0.000000590  
##  9 Denton  Date      201.     220.      0.915 0.366        
## 10 Bowie   Date      162.      41.8     3.87  0.000450     
## # ... with 246 more rows
```
…
```r
race_vars <- c("P0050003", "P0050004", "P0050006", "P0040003")

texas_race <- get_decennial(geography = "county", 
                            variables = race_vars, 
                            state = "TX",
                            summary_var = "P0010001") 

texas_race
```

```
## # A tibble: 1,016 x 5
##    GEOID NAME             variable value summary_value
##    <chr> <chr>            <chr>    <dbl>         <dbl>
##  1 48001 Anderson County  P0050003 35792         58458
##  2 48003 Andrews County   P0050003  7083         14786
##  3 48005 Angelina County  P0050003 54889         86771
##  4 48007 Aransas County   P0050003 16350         23158
##  5 48009 Archer County    P0050003  8182          9054
##  6 48011 Armstrong County P0050003  1725          1901
##  7 48013 Atascosa County  P0050003 16295         44911
##  8 48015 Austin County    P0050003 18657         28417
##  9 48017 Bailey County    P0050003  2745          7165
## 10 48019 Bandera County   P0050003 16576         20485
## # ... with 1,006 more rows
```
…
