…
opioids_raw[is.na(opioids_raw)] <- 0

opioids_raw
```

```
## # A tibble: 32,789 x 26
##    zipcode buprenorphine butorphanol codeine dihydrocodeine fentanyl
##      <dbl>         <dbl>       <dbl>   <dbl>          <dbl>    <dbl>
##  1    1810            36           0     119              0       27
##  2    1922             0           0       4              0        0
##  3    3101             0           0       0              0        0
##  4    6032             0           0       1              0        0
##  5    8003             0           0       0              0        0
##  6    8066             0           0       0              0       44
##  7    8873             0           0       0              0        0
##  8   11232             0           0       0              0        0
##  9   15146             0           0       0              0        0
## 10   15701             0           0       0              0        0
## # ... with 32,779 more rows, and 20 more variables: hydrocodone <dbl>,
## #   hydromorphone <dbl>, levorphanol <dbl>, meperidine <dbl>, methadone <dbl>,
## #   morphine <dbl>, opium <dbl>, oxycodone <dbl>, oxymetholone <dbl>,
## #   oxymorphone <dbl>, paregoric <dbl>, pentazocine <dbl>, sufentanil <dbl>,
## #   tapentadol <dbl>, tramadol <dbl>, total <dbl>, `C-IV` <dbl>, `C-III` <dbl>,
## #   `C-II` <dbl>, date <date>
```
…
opioids_dedupes <- opioids_raw %>% 
    mutate(zipcode = as.character(zipcode)) %>%
    inner_join(zcta_county, by = c("zipcode" = "ZCTA5")) %>%
    select(-STATE, -COUNTY, -GEOID) %>%
    distinct(zipcode, date, .keep_all = TRUE)

opioids_dedupes
```

```
## # A tibble: 30,082 x 26
##    zipcode buprenorphine butorphanol codeine dihydrocodeine fentanyl
##      <chr>         <dbl>       <dbl>   <dbl>          <dbl>    <dbl>
##  1   75001            23           0      36              0       67
##  2   75002           104          15     234              0       73
##  3   75006            48           3     127              0       21
##  4   75007            35          11     143              0       38
##  5   75009            11           6      20              0        8
##  6   75010           118           6     157              0       48
##  7   75013            31          14     100              0       22
##  8   75019            40          17     135              0       18
##  9   75020           116          10     204              0       60
## 10   75022            46           2      94              0       14
## # ... with 30,072 more rows, and 20 more variables: hydrocodone <dbl>,
## #   hydromorphone <dbl>, levorphanol <dbl>, meperidine <dbl>, methadone <dbl>,
## #   morphine <dbl>, opium <dbl>, oxycodone <dbl>, oxymetholone <dbl>,
## #   oxymorphone <dbl>, paregoric <dbl>, pentazocine <dbl>, sufentanil <dbl>,
## #   tapentadol <dbl>, tramadol <dbl>, total <dbl>, `C-IV` <dbl>, `C-III` <dbl>,
## #   `C-II` <dbl>, date <date>
```
…
