…
opioids_tidy <- opioids_raw %>%
    gather(County, Pills, ANDERSON:ZAVALA) %>%
    mutate(Pills = ifelse(Pills > 1e10, NA, Pills)) %>%
    replace_na(replace = list(Pills = 0)) %>%
    mutate(County = str_to_title(County)) %>%
    left_join(drug_categories, by = "Name") %>%
    select(County, Date, Name, Category, Schedule, Pills) 

opioids_tidy
```

```
## # A tibble: 926,846 x 6
##      County       Date
##       <chr>     <date>
##  1 Anderson 2015-04-01
##  2 Anderson 2015-04-01
##  3 Anderson 2015-04-01
##  4 Anderson 2015-04-01
##  5 Anderson 2015-04-01
##  6 Anderson 2015-04-01
##  7 Anderson 2015-04-01
##  8 Anderson 2015-04-01
##  9 Anderson 2015-04-01
## 10 Anderson 2015-04-01
## # ... with 926,836 more rows, and 4 more variables: Name <chr>, Category <chr>,
## #   Schedule <chr>, Pills <dbl>
```
…
county_models <- opioids_by_county %>%    
    nest(-County) %>%
    mutate(models = map(data, ~ lm(Pills ~ Date, .))) %>%
    unnest(map(models, tidy)) %>%
    filter(term == "Date") %>%
    arrange(desc(estimate))
    
county_models    
```

```
## # A tibble: 254 x 6
##       County  term  estimate std.error statistic    p.value
##        <chr> <chr>     <dbl>     <dbl>     <dbl>      <dbl>
##  1    Dallas  Date 6224.0684 3696.2856 1.6838710 0.10465391
##  2   Tarrant  Date 4058.3246 1481.0018 2.7402564 0.01116465
##  3    Denton  Date  876.4351  490.5340 1.7866958 0.08612034
##  4 Val Verde  Date  493.6089  193.5700 2.5500278 0.01728016
##  5     Gregg  Date  463.0589  202.2123 2.2899640 0.03073389
##  6     Bexar  Date  426.4094  982.2007 0.4341367 0.66791299
##  7    Collin  Date  337.6316  360.4081 0.9368035 0.35782198
##  8  Mclennan  Date  277.5202  242.4875 1.1444722 0.26326746
##  9     Ellis  Date  260.6787  222.5309 1.1714272 0.25247114
## 10      Hill  Date  258.5444  136.5157 1.8938809 0.06986816
## # ... with 244 more rows
```
…
population
```

```
## Simple feature collection with 254 features and 5 fields
## geometry type:  MULTIPOLYGON
## dimension:      XY
## bbox:           xmin: -106.6456 ymin: 25.83738 xmax: -93.50829 ymax: 36.5007
## epsg (SRID):    4269
## proj4string:    +proj=longlat +datum=NAD83 +no_defs
## # A tibble: 254 x 6
##    GEOID                    NAME   variable estimate   moe          geometry
##    <chr>                   <chr>      <chr>    <dbl> <dbl>  <simple_feature>
##  1 48007   Aransas County, Texas B01003_001    24292     0 <MULTIPOLYGON...>
##  2 48025       Bee County, Texas B01003_001    32659     0 <MULTIPOLYGON...>
##  3 48035    Bosque County, Texas B01003_001    17971     0 <MULTIPOLYGON...>
##  4 48067      Cass County, Texas B01003_001    30328     0 <MULTIPOLYGON...>
##  5 48083   Coleman County, Texas B01003_001     8536     0 <MULTIPOLYGON...>
##  6 48091     Comal County, Texas B01003_001   119632     0 <MULTIPOLYGON...>
##  7 48103     Crane County, Texas B01003_001     4730     0 <MULTIPOLYGON...>
##  8 48139     Ellis County, Texas B01003_001   157058     0 <MULTIPOLYGON...>
##  9 48151    Fisher County, Texas B01003_001     3858     0 <MULTIPOLYGON...>
## 10 48167 Galveston County, Texas B01003_001   308163     0 <MULTIPOLYGON...>
## # ... with 244 more rows
```
…
household_income
```

```
## Simple feature collection with 254 features and 5 fields
## geometry type:  MULTIPOLYGON
## dimension:      XY
## bbox:           xmin: -106.6456 ymin: 25.83738 xmax: -93.50829 ymax: 36.5007
## epsg (SRID):    4269
## proj4string:    +proj=longlat +datum=NAD83 +no_defs
## # A tibble: 254 x 6
##    GEOID                    NAME   variable estimate   moe          geometry
##    <chr>                   <chr>      <chr>    <dbl> <dbl>  <simple_feature>
##  1 48007   Aransas County, Texas B19013_001    41690  3678 <MULTIPOLYGON...>
##  2 48025       Bee County, Texas B19013_001    42302  3403 <MULTIPOLYGON...>
##  3 48035    Bosque County, Texas B19013_001    44674  3329 <MULTIPOLYGON...>
##  4 48067      Cass County, Texas B19013_001    37352  2430 <MULTIPOLYGON...>
##  5 48083   Coleman County, Texas B19013_001    35156  4158 <MULTIPOLYGON...>
##  6 48091     Comal County, Texas B19013_001    65833  3291 <MULTIPOLYGON...>
##  7 48103     Crane County, Texas B19013_001    58333  6374 <MULTIPOLYGON...>
##  8 48139     Ellis County, Texas B19013_001    62465  2002 <MULTIPOLYGON...>
##  9 48151    Fisher County, Texas B19013_001    41406  2956 <MULTIPOLYGON...>
## 10 48167 Galveston County, Texas B19013_001    62313  1675 <MULTIPOLYGON...>
## # ... with 244 more rows
```
…
```r
race_vars <- c("P0050003", "P0050004", "P0050006", "P0040003")

texas_race <- get_decennial(geography = "county", 
                            variables = race_vars, 
                            state = "TX",
                            summary_var = "P0010001") 

texas_race
```

```
## # A tibble: 1,016 x 5
##    GEOID             NAME variable value summary_value
##    <chr>            <chr>    <chr> <dbl>         <dbl>
##  1 48001  Anderson County P0050003 35792         58458
##  2 48003   Andrews County P0050003  7083         14786
##  3 48005  Angelina County P0050003 54889         86771
##  4 48007   Aransas County P0050003 16350         23158
##  5 48009    Archer County P0050003  8182          9054
##  6 48011 Armstrong County P0050003  1725          1901
##  7 48013  Atascosa County P0050003 16295         44911
##  8 48015    Austin County P0050003 18657         28417
##  9 48017    Bailey County P0050003  2745          7165
## 10 48019   Bandera County P0050003 16576         20485
## # ... with 1,006 more rows
```
…
