…
opioids_raw[is.na(opioids_raw)] <- 0

opioids_raw
```

```
## # A tibble: 4,376 x 26
##    zipcode buprenorphine butorphanol codeine dihydrocodeine fentanyl
##      <chr>         <dbl>       <dbl>   <dbl>          <dbl>    <dbl>
##  1   01810            36           0     119              0       27
##  2   01922             0           0       4              0        0
##  3   03101             0           0       0              0        0
##  4   06032             0           0       1              0        0
##  5   08003             0           0       0              0        0
##  6   08066             0           0       0              0       44
##  7   08873             0           0       0              0        0
##  8   11232             0           0       0              0        0
##  9   15146             0           0       0              0        0
## 10   15701             0           0       0              0        0
## # ... with 4,366 more rows, and 20 more variables: hydrocodone <dbl>,
## #   hydromorphone <dbl>, levorphanol <dbl>, meperidine <dbl>, methadone <dbl>,
## #   morphine <dbl>, opium <dbl>, oxycodone <dbl>, oxymetholone <dbl>,
## #   oxymorphone <dbl>, paregoric <dbl>, pentazocine <dbl>, sufentanil <dbl>,
## #   tapentadol <dbl>, tramadol <dbl>, total <dbl>, `C-IV` <dbl>, `C-III` <dbl>,
## #   `C-II` <dbl>, month <chr>
```
…
```r
zcta_county <- read_csv("http://www2.census.gov/geo/docs/maps-data/data/rel/zcta_county_rel_10.txt") %>%
    select(ZCTA5, STATE, COUNTY, GEOID) %>%
    filter(STATE == 48)

texas_opioids <- opioids_raw %>% 
    inner_join(zcta_county, by = c("zipcode" = "ZCTA5"))

texas_opioids
```

```
## # A tibble: 5,584 x 29
##    zipcode buprenorphine butorphanol codeine dihydrocodeine fentanyl
##      <chr>         <dbl>       <dbl>   <dbl>          <dbl>    <dbl>
##  1   75001            23           0      36              0       67
##  2   75002           104          15     234              0       73
##  3   75006            48           3     127              0       21
##  4   75007            35          11     143              0       38
##  5   75007            35          11     143              0       38
##  6   75009            11           6      20              0        8
##  7   75009            11           6      20              0        8
##  8   75010           118           6     157              0       48
##  9   75013            31          14     100              0       22
## 10   75019            40          17     135              0       18
## # ... with 5,574 more rows, and 23 more variables: hydrocodone <dbl>,
## #   hydromorphone <dbl>, levorphanol <dbl>, meperidine <dbl>, methadone <dbl>,
## #   morphine <dbl>, opium <dbl>, oxycodone <dbl>, oxymetholone <dbl>,
## #   oxymorphone <dbl>, paregoric <dbl>, pentazocine <dbl>, sufentanil <dbl>,
## #   tapentadol <dbl>, tramadol <dbl>, total <dbl>, `C-IV` <dbl>, `C-III` <dbl>,
## #   `C-II` <dbl>, month <chr>, STATE <int>, COUNTY <chr>, GEOID <int>
```
…
```
## Error in estimate(popfetch): could not find function "estimate"
```

```r
population
```

```
## # A tibble: 4,060 x 3
##        country  year population
##          <chr> <int>      <int>
##  1 Afghanistan  1995   17586073
##  2 Afghanistan  1996   18415307
##  3 Afghanistan  1997   19021226
##  4 Afghanistan  1998   19496836
##  5 Afghanistan  1999   19987071
##  6 Afghanistan  2000   20595360
##  7 Afghanistan  2001   21347782
##  8 Afghanistan  2002   22202806
##  9 Afghanistan  2003   23116142
## 10 Afghanistan  2004   24018682
## # ... with 4,050 more rows
```
…
